<?xml version="1.0" encoding="UTF-8"?>
<svg width="30px" height="23px" viewBox="0 0 30 23" version="1.1" xmlns="http://www.w3.org/2000/svg" xmlns:xlink="http://www.w3.org/1999/xlink">
    <title>D7A5008E-6D2F-4B15-828C-23647E1E88BC</title>
    <g id="Care-Coach-Webapp" stroke="none" stroke-width="1" fill="none" fill-rule="evenodd">
        <g id="-Dashboard-/-DB-—-Landing-No-Calls" transform="translate(-1116.000000, -665.000000)">
            <g id="Group-Copy" transform="translate(1116.000000, 665.000000)">
                <rect id="Rectangle" x="0" y="0" width="29.6666667" height="22.25"></rect>
                <path d="M6.76104972,22.051949 C8.70058318,22.051949 10.3123082,21.4236495 11.5962247,20.1670503 C12.8801412,18.9104512 13.5220994,17.2031154 13.5220994,15.045043 C13.5220994,12.8869705 12.6206262,11.2069521 10.8176796,10.0049877 L10.8176796,10.0049877 L14.5055249,1.23611111 L7.7854512,1.23611111 L1.80294659,9.9230356 C0.600982198,11.7806169 0,13.6655157 0,15.5777317 C0,17.4899478 0.641958257,19.0470381 1.92587477,20.2490025 C3.20979128,21.4509669 4.82151627,22.051949 6.76104972,22.051949 Z M21.9221915,22.051949 C23.861725,22.051949 25.47345,21.4236495 26.7573665,20.1670503 C28.041283,18.9104512 28.6832413,17.2031154 28.6832413,15.045043 C28.6832413,12.8869705 27.781768,11.2069521 25.9788214,10.0049877 L25.9788214,10.0049877 L29.6666667,1.23611111 L22.946593,1.23611111 L16.9640884,9.9230356 C15.762124,11.7806169 15.1611418,13.6655157 15.1611418,15.5777317 C15.1611418,17.4899478 15.8031001,19.0470381 17.0870166,20.2490025 C18.3709331,21.4509669 19.9826581,22.051949 21.9221915,22.051949 Z" id="Quotes" fill="#FBCA71"></path>
            </g>
        </g>
    </g>
</svg>
