<svg xmlns="http://www.w3.org/2000/svg" width="96" height="96" viewBox="0 0 96 96">
    <g fill="none" fill-rule="evenodd" stroke-linecap="round" stroke-linejoin="round">
        <g stroke="#07A689" stroke-width="3">
            <g>
                <path d="M31 48.013l11.013 11.014L64.04 37M6 48C6 24.808 24.803 6 48 6s42 18.808 42 42c0 23.197-18.803 42-42 42S6 71.197 6 48z" transform="translate(-810 -344) translate(810 344)"/>
            </g>
        </g>
    </g>
</svg>
