<svg xmlns="http://www.w3.org/2000/svg" width="24" height="24" viewBox="0 0 24 24">
    <g fill="none" fill-rule="evenodd" stroke-linecap="round" stroke-linejoin="round">
        <g stroke="#24254E" stroke-width="1.5">
            <g>
                <g>
                    <path d="M9 18l-6.5-6.5L9 5h0m-6.5 6.5h19" transform="translate(-1116 -180) translate(1104 168) translate(12 12)"/>
                </g>
            </g>
        </g>
    </g>
</svg>
