<svg xmlns="http://www.w3.org/2000/svg" width="16" height="16" viewBox="0 0 16 16">
    <g fill="none" fill-rule="evenodd" stroke-linecap="round" stroke-linejoin="round">
        <g stroke="#3C75C8" stroke-width="1.5">
            <g>
                <g>
                    <g>
                        <path d="M10.75 13.75L5.25 8.25 10.75 2.75 10.75 2.75" transform="translate(-1376 -682) translate(1032 666) translate(328) translate(16 16) rotate(-90 8 8.25)"/>
                    </g>
                </g>
            </g>
        </g>
    </g>
</svg>
