<svg xmlns="http://www.w3.org/2000/svg" width="24" height="24" viewBox="0 0 24 24">
    <g fill="none" fill-rule="evenodd" stroke-linecap="round" stroke-linejoin="round">
        <g stroke="#FBCA71" stroke-width="1.5">
            <circle cx="12" cy="12" r="10"/>
        </g>
    </g>
</svg>
