<svg xmlns="http://www.w3.org/2000/svg" width="24" height="24" viewBox="0 0 24 24">
    <g fill="none" fill-rule="evenodd" stroke-linecap="round" stroke-linejoin="round">
        <g stroke="#24254E" stroke-width="1.5">
            <g>
                <g>
                    <g>
                        <path d="M22.2 4.793c0-1.132-.881-1.785-1.964-1.46L11.95 5.818V21.7l8.286-2.484c1.086-.326 1.964-1.505 1.964-2.639V4.793zm-20.5 0c0-1.132.883-1.785 1.965-1.46l8.285 2.485V21.7l-8.285-2.484C2.579 18.89 1.7 17.71 1.7 16.577V4.793z" transform="translate(-294 -869) translate(0 845) translate(264) translate(30 24)"/>
                    </g>
                </g>
            </g>
        </g>
    </g>
</svg>
