<svg xmlns="http://www.w3.org/2000/svg" width="24" height="24" viewBox="0 0 24 24">
    <g fill="none" fill-rule="evenodd" stroke-linecap="round" stroke-linejoin="round">
        <g stroke="#FBCA71" stroke-width="1.5">
            <path d="M4.504 4C3.673 4 3 4.672 3 5.501V6.5C3 7.326 3.673 8 4.504 8h14.992C20.327 8 21 7.329 21 6.5v-.999C21 4.675 20.327 4 19.496 4L15.5 3.501C15.5 2.675 14.828 2 13.998 2h-3.996C9.171 2 8.5 2.672 8.5 3.501L4.504 4zM9.5 12l.5 6-.5-6zm5 0l-.5 6 .5-6zM5 8h14l-.787 11.014C18.096 20.663 16.658 22 15.003 22H8.997c-1.655 0-3.093-1.342-3.21-2.986L5 8z"/>
        </g>
    </g>
</svg>
