<?xml version="1.0" encoding="UTF-8"?>
<svg width="24px" height="24px" viewBox="0 0 24 24" version="1.1" xmlns="http://www.w3.org/2000/svg" xmlns:xlink="http://www.w3.org/1999/xlink">
    <title>6156FB50-FC24-44CF-959E-DD953D9CC109</title>
    <g id="Care-Coach-Webapp" stroke="none" stroke-width="1" fill="none" fill-rule="evenodd" stroke-linecap="round" stroke-linejoin="round">
        <g id="-Quizzes-/-Q-—-Landing-Empty" transform="translate(-126.000000, -357.000000)" stroke="#24254E" stroke-width="1.5">
            <g id="Navs/Side/Caregiver" transform="translate(102.000000, 84.000000)">
                <g id="Nav" transform="translate(0.000000, 222.000000)">
                    <g id="Progress" transform="translate(0.000000, 42.000000)">
                        <g id="Icons/24px/Trophy" transform="translate(24.000000, 9.000000)">
                            <path d="M6,11.007 C6,14.38 8.788,17.1 12.187,16.997 C15.469,16.899 18,14.035 18,10.751 L18,3.496 C18,2.67 17.331,2 16.505,2 L7.493,2 C6.669,2 6,2.669 6,3.493 L6,11.007 Z M10,16.657 L10,19 L9.5,19 C8.672,19 8,19.672 8,20.5 L8,21.257 C8,21.667 8.333,22 8.744,22 L15.252,22 C15.665,22 16,21.665 16,21.252 L16,20.495 C16,19.67 15.331,19 14.505,19 L14,19 L14,16.656 M17.151,14.073 C20.058,12.324 22,9.14 22,5.504 C22,4.672 21.327,4 20.497,4 L18,4 M6.846,14.071 C3.942,12.321 2,9.138 2,5.5 C2,4.673 2.672,4 3.504,4 L6,4" id="Trophy"></path>
                        </g>
                    </g>
                </g>
            </g>
        </g>
    </g>
</svg>
