<svg xmlns="http://www.w3.org/2000/svg" width="24" height="24" viewBox="0 0 24 24">
    <g fill="none" fill-rule="evenodd" stroke-linecap="round" stroke-linejoin="round">
        <g stroke="#24254E" stroke-width="1.5">
            <g>
                <g>
                    <g>
                        <g>
                            <path d="M6 11.007c0 3.373 2.788 6.093 6.187 5.99C15.469 16.899 18 14.035 18 10.751V3.496C18 2.67 17.331 2 16.505 2H7.493C6.669 2 6 2.669 6 3.493v7.514zm4 5.65V19h-.5c-.828 0-1.5.672-1.5 1.5v.757c0 .41.333.743.744.743h6.508c.413 0 .748-.335.748-.748v-.757C16 19.67 15.331 19 14.505 19H14v-2.344m3.151-2.583C20.058 12.324 22 9.14 22 5.504 22 4.672 21.327 4 20.497 4H18M6.846 14.071C3.942 12.321 2 9.138 2 5.5 2 4.673 2.672 4 3.504 4H6" transform="translate(-126 -357) translate(102 84) translate(0 222) translate(0 42) translate(24 9)"/>
                        </g>
                    </g>
                </g>
            </g>
        </g>
    </g>
</svg>
