// Jest Snapshot v1, https://goo.gl/fbAQLP

exports[`--- NotificationProcessor Component --- publish to render completely 1`] = `null`;

exports[`--- NotificationProcessor Component --- to render completely 1`] = `null`;
