// Jest Snapshot v1, https://goo.gl/fbAQLP

exports[`EachTask component Component rendering, incomplete task 1`] = `
<div
  className="MuiBox-root MuiBox-root-13 makeStyles-root-1"
>
  <div
    className="MuiBox-root MuiBox-root-24 makeStyles-root-14"
  >
    <div
      className="MuiBox-root MuiBox-root-25 makeStyles-titlerow-15"
      onClick={[Function]}
    >
      <div
        className="MuiBox-root MuiBox-root-26 makeStyles-titlecontainer-16"
      >
        <div
          className="MuiTypography-root makeStyles-title-17 MuiTypography-body1"
        >
          edit-milestone-tasks
        </div>
      </div>
      <div
        className="MuiBox-root MuiBox-root-27 makeStyles-icons-19"
      >
        <div
          className="MuiTypography-root makeStyles-countintitle-18 MuiTypography-body1"
        >
          1
        </div>
      </div>
      <svg
        className="makeStyles-chevrondownicon-20"
      >
        chevron-down.svg
      </svg>
    </div>
    <div
      className="MuiCollapse-container MuiCollapse-entered"
      style={
        Object {
          "minHeight": "0px",
        }
      }
    >
      <div
        className="MuiCollapse-wrapper"
      >
        <div
          className="MuiCollapse-wrapperInner"
        >
          <div
            className="MuiBox-root MuiBox-root-38 makeStyles-tasklistcontainer-28"
          >
            <div
              className="MuiBox-root MuiBox-root-39 makeStyles-leftside-30"
              id="task-checkbox"
              onClick={[Function]}
            >
              <span
                aria-disabled={false}
                className="MuiButtonBase-root MuiIconButton-root PrivateSwitchBase-root-40 MuiCheckbox-root makeStyles-checkboxborder-34 MuiCheckbox-colorPrimary makeStyles-checkboxcolor-29 makeStyles-checkbox-35 MuiIconButton-colorPrimary"
                onBlur={[Function]}
                onDragLeave={[Function]}
                onFocus={[Function]}
                onKeyDown={[Function]}
                onKeyUp={[Function]}
                onMouseDown={[Function]}
                onMouseLeave={[Function]}
                onMouseUp={[Function]}
                onTouchEnd={[Function]}
                onTouchMove={[Function]}
                onTouchStart={[Function]}
                tabIndex={null}
              >
                <span
                  className="MuiIconButton-label"
                >
                  <input
                    checked={false}
                    className="PrivateSwitchBase-input-43"
                    data-indeterminate={false}
                    onChange={[Function]}
                    type="checkbox"
                  />
                  <svg
                    aria-hidden={true}
                    className="MuiSvgIcon-root"
                    focusable="false"
                    viewBox="0 0 24 24"
                  >
                    <path
                      d="M19 5v14H5V5h14m0-2H5c-1.1 0-2 .9-2 2v14c0 1.1.9 2 2 2h14c1.1 0 2-.9 2-2V5c0-1.1-.9-2-2-2z"
                    />
                  </svg>
                </span>
              </span>
              <span
                className="MuiTypography-root makeStyles-taskname-32 MuiTypography-body1"
              >
                taskname
              </span>
            </div>
            <div
              className="MuiBox-root MuiBox-root-44 makeStyles-rightside-31"
            >
              <a
                className="MuiTypography-root MuiLink-root MuiLink-underlineHover makeStyles-link-36 MuiTypography-body2 MuiTypography-colorPrimary"
                href="no link"
                onBlur={[Function]}
                onFocus={[Function]}
                rel="noreferrer noopener"
                target="_blank"
                type="text"
              >
                <svg>
                  chainlink.svg
                </svg>
              </a>
              <svg
                className="makeStyles-trashcan-37"
                data-testid="editTask"
                id="edit-task"
                onClick={[Function]}
              >
                pen.svg
              </svg>
            </div>
          </div>
          <div
            className="MuiBox-root MuiBox-root-45 makeStyles-addnewtask-2"
            id="add-new-task"
          >
            <svg
              onClick={[Function]}
            >
              plus.svg
            </svg>
            <button
              className="MuiButtonBase-root MuiButton-root MuiButton-text makeStyles-addnewtaskbtn-3"
              disabled={false}
              id="addnewtask"
              onBlur={[Function]}
              onClick={[Function]}
              onDragLeave={[Function]}
              onFocus={[Function]}
              onKeyDown={[Function]}
              onKeyUp={[Function]}
              onMouseDown={[Function]}
              onMouseLeave={[Function]}
              onMouseUp={[Function]}
              onTouchEnd={[Function]}
              onTouchMove={[Function]}
              onTouchStart={[Function]}
              tabIndex={0}
              type="button"
            >
              <span
                className="MuiButton-label"
              >
                general-form-add-new
              </span>
            </button>
          </div>
        </div>
      </div>
    </div>
  </div>
</div>
`;
