<svg xmlns="http://www.w3.org/2000/svg" width="24" height="24" viewBox="0 0 24 24">
    <g fill="none" fill-rule="evenodd" stroke-linecap="round" stroke-linejoin="round">
        <g stroke="#DB687A" stroke-width="1.5">
            <g>
                <g>
                    <path d="M12 14c4.281 0 9.087 2.602 9.5 3.5.339.736.5 3 .5 3 0 .827-.67 1.5-1.497 1.5h0H3.497C2.67 22 2 21.327 2 20.5c0 0 .161-2.264.5-3 .413-.898 5.219-3.5 9.5-3.5zm0-12c2.485 0 4.5 2.015 4.5 4.5S14.485 11 12 11 7.5 8.985 7.5 6.5 9.515 2 12 2z" transform="translate(-1062 -252) translate(1034 224) translate(28 28)"/>
                </g>
            </g>
        </g>
    </g>
</svg>
