// Jest Snapshot v1, https://goo.gl/fbAQLP

exports[`NoteCard component check Note display with less than 100 characters body 1`] = `
<div
  className="MuiBox-root MuiBox-root-8 makeStyles-notecardcontainer-1"
  onClick={[Function]}
>
  <div
    className="MuiBox-root MuiBox-root-9 makeStyles-titlecontainer-2"
  >
    <div
      className="MuiTypography-root makeStyles-notetitle-3 MuiTypography-h6"
      id="notetitle"
    >
      Sample title
    </div>
  </div>
  <div
    className="MuiTypography-root makeStyles-notebody-4 MuiTypography-h6"
    id="notebody"
  >
    Should be more than 100 characters.
  </div>
  <div
    className="MuiTypography-root makeStyles-notefooter-5 MuiTypography-h6"
    id="notecreatedat"
  >
    2020-12-30T07:53:20.908Z at 2020-12-30T07:53:20.908Z
  </div>
</div>
`;

exports[`NoteCard component check Note display with more than 100 characters body 1`] = `
<div
  className="MuiBox-root MuiBox-root-6 makeStyles-notecardcontainer-1"
  onClick={[Function]}
>
  <div
    className="MuiBox-root MuiBox-root-7 makeStyles-titlecontainer-2"
  >
    <div
      className="MuiTypography-root makeStyles-notetitle-3 MuiTypography-h6"
      id="notetitle"
    >
      Sample title
    </div>
  </div>
  <div
    className="MuiTypography-root makeStyles-notebody-4 MuiTypography-h6"
    id="notebody"
  >
    Should be more than 100 characters. Lorem Ipsum is simply dummy text of the printing and typesetting...
  </div>
  <div
    className="MuiTypography-root makeStyles-notefooter-5 MuiTypography-h6"
    id="notecreatedat"
  >
    2020-12-31T07:53:20.908Z at 2020-12-31T07:53:20.908Z
  </div>
</div>
`;
