<svg xmlns="http://www.w3.org/2000/svg" width="16" height="16" viewBox="0 0 16 16">
    <g fill="none" fill-rule="evenodd" stroke-linecap="round" stroke-linejoin="round">
        <g stroke="#505176" stroke-width="1.5">
            <g>
                <g>
                    <g>
                        <path d="M8 14.5c3.59 0 6.5-2.91 6.5-6.5S11.59 1.5 8 1.5 1.5 4.41 1.5 8s2.91 6.5 6.5 6.5zM5.4 5.4l5.2 5.2m0-5.2l-5.2 5.2" transform="translate(-385 -808) translate(138 792) translate(230) translate(17 16)"/>
                    </g>
                </g>
            </g>
        </g>
    </g>
</svg>
