<svg xmlns="http://www.w3.org/2000/svg" width="16" height="16" viewBox="0 0 16 16">
    <g fill="none" fill-rule="evenodd" stroke-linecap="round" stroke-linejoin="round">
        <g stroke="#FFF" stroke-width="1.5">
            <g>
                <g>
                    <g>
                        <path d="M13.788 4.25L6.288 11.75 2.25 7.712" transform="translate(-385 -429) translate(138 413) translate(230) translate(17 16)"/>
                    </g>
                </g>
            </g>
        </g>
    </g>
</svg>
