<svg xmlns="http://www.w3.org/2000/svg" width="24" height="24" viewBox="0 0 24 24">
    <g fill="none" fill-rule="evenodd" stroke-linecap="round" stroke-linejoin="round">
        <g stroke="#FFF" stroke-width="1.5">
            <g>
                <g>
                    <path d="M21.407 17.335c.781.651.781 1.697-.01 2.345l-1.92 1.571c-.787.644-2.215.943-3.173.615 0 0-3.87-.73-8.66-5.52-4.79-4.79-5.52-8.66-5.52-8.66-.304-.965-.032-2.38.615-3.172l1.571-1.92c.644-.788 1.694-.793 2.345-.01L9.027 5.43c.434.52.483 1.395.105 1.963L8.078 8.974s.013 2.615 2.168 4.77c2.156 2.156 4.77 2.168 4.77 2.168l1.581-1.054c.564-.376 1.447-.325 1.963.105l2.847 2.372zM22 2l-7 7m0-7l7 7" transform="translate(-460 -876) translate(448 864) translate(12 12)"/>
                </g>
            </g>
        </g>
    </g>
</svg>
