// Jest Snapshot v1, https://goo.gl/fbAQLP

exports[`--- GoodThings Component --- to render  1`] = `
<div
  className="alertscreen_container undefined"
  id="AlertScreen-main"
>
  <div
    className="alertscreen_containerTop"
  >
    <div
      className="alertScreen_img"
    >
      <img
        alt="calendar"
        src="assets/images/hourglass.png"
      />
    </div>
    <h1
      className="alertscreen_headingText"
    >
      GoodThings-labels-mainTitle
    </h1>
    <h2
      className="alertscreen_body"
    >
      GoodThings-labels-secondaryTitle
    </h2>
  </div>
  <div
    className="alertscreen_containerBotton"
  />
</div>
`;
